^C:\USERS\MARELLA\SOURCE\REPOS\BASPRG3 MIDTERMS\BASPRG3 MIDTERMS\DEBUG\ASSASSIN.OBJ|C:\USERS\MARELLA\SOURCE\REPOS\BASPRG3 MIDTERMS\BASPRG3 MIDTERMS\DEBUG\ASSASSINATE.OBJ|C:\USERS\MARELLA\SOURCE\REPOS\BASPRG3 MIDTERMS\BASPRG3 MIDTERMS\DEBUG\BASICATTACK.OBJ|C:\USERS\MARELLA\SOURCE\REPOS\BASPRG3 MIDTERMS\BASPRG3 MIDTERMS\DEBUG\CHARACTER.OBJ|C:\USERS\MARELLA\SOURCE\REPOS\BASPRG3 MIDTERMS\BASPRG3 MIDTERMS\DEBUG\DIABLO.OBJ|C:\USERS\MARELLA\SOURCE\REPOS\BASPRG3 MIDTERMS\BASPRG3 MIDTERMS\DEBUG\DIVISION.OBJ|C:\USERS\MARELLA\SOURCE\REPOS\BASPRG3 MIDTERMS\BASPRG3 MIDTERMS\DEBUG\HEAL.OBJ|C:\USERS\MARELLA\SOURCE\REPOS\BASPRG3 MIDTERMS\BASPRG3 MIDTERMS\DEBUG\MAGE.OBJ|C:\USERS\MARELLA\SOURCE\REPOS\BASPRG3 MIDTERMS\BASPRG3 MIDTERMS\DEBUG\SHOCKWAVE.OBJ|C:\USERS\MARELLA\SOURCE\REPOS\BASPRG3 MIDTERMS\BASPRG3 MIDTERMS\DEBUG\SKILL.OBJ|C:\USERS\MARELLA\SOURCE\REPOS\BASPRG3 MIDTERMS\BASPRG3 MIDTERMS\DEBUG\SOURCE.OBJ|C:\USERS\MARELLA\SOURCE\REPOS\BASPRG3 MIDTERMS\BASPRG3 MIDTERMS\DEBUG\TEAMS.OBJ|C:\USERS\MARELLA\SOURCE\REPOS\BASPRG3 MIDTERMS\BASPRG3 MIDTERMS\DEBUG\WARCRAFT.OBJ|C:\USERS\MARELLA\SOURCE\REPOS\BASPRG3 MIDTERMS\BASPRG3 MIDTERMS\DEBUG\WARRIOR.OBJ
C:\PROGRAM FILES (X86)\WINDOWS KITS\10\LIB\10.0.17763.0\UM\X86\KERNEL32.LIB
C:\PROGRAM FILES (X86)\WINDOWS KITS\10\LIB\10.0.17763.0\UM\X86\USER32.LIB
C:\PROGRAM FILES (X86)\WINDOWS KITS\10\LIB\10.0.17763.0\UM\X86\GDI32.LIB
C:\PROGRAM FILES (X86)\WINDOWS KITS\10\LIB\10.0.17763.0\UM\X86\WINSPOOL.LIB
C:\PROGRAM FILES (X86)\WINDOWS KITS\10\LIB\10.0.17763.0\UM\X86\COMDLG32.LIB
C:\PROGRAM FILES (X86)\WINDOWS KITS\10\LIB\10.0.17763.0\UM\X86\ADVAPI32.LIB
C:\PROGRAM FILES (X86)\WINDOWS KITS\10\LIB\10.0.17763.0\UM\X86\SHELL32.LIB
C:\PROGRAM FILES (X86)\WINDOWS KITS\10\LIB\10.0.17763.0\UM\X86\OLE32.LIB
C:\PROGRAM FILES (X86)\WINDOWS KITS\10\LIB\10.0.17763.0\UM\X86\OLEAUT32.LIB
C:\PROGRAM FILES (X86)\WINDOWS KITS\10\LIB\10.0.17763.0\UM\X86\UUID.LIB
C:\PROGRAM FILES (X86)\WINDOWS KITS\10\LIB\10.0.17763.0\UM\X86\ODBC32.LIB
C:\PROGRAM FILES (X86)\WINDOWS KITS\10\LIB\10.0.17763.0\UM\X86\ODBCCP32.LIB
C:\USERS\MARELLA\SOURCE\REPOS\BASPRG3 MIDTERMS\BASPRG3 MIDTERMS\DEBUG\ASSASSINATE.OBJ
C:\USERS\MARELLA\SOURCE\REPOS\BASPRG3 MIDTERMS\BASPRG3 MIDTERMS\DEBUG\BASICATTACK.OBJ
C:\USERS\MARELLA\SOURCE\REPOS\BASPRG3 MIDTERMS\BASPRG3 MIDTERMS\DEBUG\CHARACTER.OBJ
C:\USERS\MARELLA\SOURCE\REPOS\BASPRG3 MIDTERMS\BASPRG3 MIDTERMS\DEBUG\DIABLO.OBJ
C:\USERS\MARELLA\SOURCE\REPOS\BASPRG3 MIDTERMS\BASPRG3 MIDTERMS\DEBUG\DIVISION.OBJ
C:\USERS\MARELLA\SOURCE\REPOS\BASPRG3 MIDTERMS\BASPRG3 MIDTERMS\DEBUG\HEAL.OBJ
C:\USERS\MARELLA\SOURCE\REPOS\BASPRG3 MIDTERMS\BASPRG3 MIDTERMS\DEBUG\MAGE.OBJ
C:\USERS\MARELLA\SOURCE\REPOS\BASPRG3 MIDTERMS\BASPRG3 MIDTERMS\DEBUG\SHOCKWAVE.OBJ
C:\USERS\MARELLA\SOURCE\REPOS\BASPRG3 MIDTERMS\BASPRG3 MIDTERMS\DEBUG\SKILL.OBJ
C:\USERS\MARELLA\SOURCE\REPOS\BASPRG3 MIDTERMS\BASPRG3 MIDTERMS\DEBUG\SOURCE.OBJ
C:\USERS\MARELLA\SOURCE\REPOS\BASPRG3 MIDTERMS\BASPRG3 MIDTERMS\DEBUG\TEAMS.OBJ
C:\USERS\MARELLA\SOURCE\REPOS\BASPRG3 MIDTERMS\BASPRG3 MIDTERMS\DEBUG\WARCRAFT.OBJ
C:\USERS\MARELLA\SOURCE\REPOS\BASPRG3 MIDTERMS\BASPRG3 MIDTERMS\DEBUG\WARRIOR.OBJ
C:\USERS\MARELLA\SOURCE\REPOS\BASPRG3 MIDTERMS\BASPRG3 MIDTERMS\DEBUG\ASSASSIN.OBJ
C:\WINDOWS\GLOBALIZATION\SORTING\SORTDEFAULT.NLS
C:\PROGRAM FILES (X86)\MICROSOFT VISUAL STUDIO\2017\COMMUNITY\VC\TOOLS\MSVC\14.16.27023\LIB\X86\MSVCPRTD.LIB
C:\PROGRAM FILES (X86)\MICROSOFT VISUAL STUDIO\2017\COMMUNITY\VC\TOOLS\MSVC\14.16.27023\LIB\X86\MSVCRTD.LIB
C:\PROGRAM FILES (X86)\MICROSOFT VISUAL STUDIO\2017\COMMUNITY\VC\TOOLS\MSVC\14.16.27023\LIB\X86\OLDNAMES.LIB
C:\PROGRAM FILES (X86)\MICROSOFT VISUAL STUDIO\2017\COMMUNITY\VC\TOOLS\MSVC\14.16.27023\LIB\X86\VCRUNTIMED.LIB
C:\PROGRAM FILES (X86)\WINDOWS KITS\10\LIB\10.0.17763.0\UCRT\X86\UCRTD.LIB
C:\PROGRAM FILES (X86)\WINDOWS KITS\10\BIN\10.0.17763.0\X86\RC.EXE
C:\PROGRAM FILES (X86)\MICROSOFT VISUAL STUDIO\2017\COMMUNITY\VC\TOOLS\MSVC\14.16.27023\BIN\HOSTX86\X86\CVTRES.EXE
C:\PROGRAM FILES (X86)\MICROSOFT VISUAL STUDIO\2017\COMMUNITY\VC\TOOLS\MSVC\14.16.27023\BIN\HOSTX86\X86\MSPDBSRV.EXE
C:\WINDOWS\SYSTEM32\TZRES.DLL
