^C:\USERS\MIGUEL\DESKTOP\NEW FOLDER\1 - SETUP BASICS\1 - SETUP BASICS\DEBUG\BASEAPPLICATION.OBJ|C:\USERS\MIGUEL\DESKTOP\NEW FOLDER\1 - SETUP BASICS\1 - SETUP BASICS\DEBUG\TUTORIALAPPLICATION.OBJ
/OUT:"C:\USERS\MIGUEL\DESKTOP\NEW FOLDER\1 - SETUP BASICS\DEBUG\1 - SETUP BASICS.EXE" /INCREMENTAL /NOLOGO /LIBPATH:C:\OGRESDK_1_9\BOOST\LIB /LIBPATH:C:\OGRESDK_1_9\LIB\DEBUG OGREMAIN_D.LIB OIS_D.LIB OGREOVERLAY_D.LIB KERNEL32.LIB USER32.LIB GDI32.LIB WINSPOOL.LIB COMDLG32.LIB ADVAPI32.LIB SHELL32.LIB OLE32.LIB OLEAUT32.LIB UUID.LIB ODBC32.LIB ODBCCP32.LIB /MANIFEST /MANIFESTUAC:"level='asInvoker' uiAccess='false'" /manifest:embed /DEBUG:FASTLINK /PDB:"C:\USERS\MIGUEL\DESKTOP\NEW FOLDER\1 - SETUP BASICS\DEBUG\1 - SETUP BASICS.PDB" /TLBID:1 /DYNAMICBASE /NXCOMPAT /IMPLIB:"C:\USERS\MIGUEL\DESKTOP\NEW FOLDER\1 - SETUP BASICS\DEBUG\1 - SETUP BASICS.LIB" /MACHINE:X86 DEBUG\BASEAPPLICATION.OBJDEBUG\TUTORIALAPPLICATION.OBJ
^C:\USERS\MARELLA\DESKTOP\1 - SETUP BASICS\1 - SETUP BASICS\DEBUG\BASEAPPLICATION.OBJ|C:\USERS\MARELLA\DESKTOP\1 - SETUP BASICS\1 - SETUP BASICS\DEBUG\TUTORIALAPPLICATION.OBJ
/OUT:"C:\USERS\MARELLA\DESKTOP\1 - SETUP BASICS\DEBUG\1 - SETUP BASICS.EXE" /INCREMENTAL /NOLOGO /LIBPATH:C:\OGRESDK_1_9\BOOST\LIB /LIBPATH:C:\OGRESDK_1_9\LIB\DEBUG OGREMAIN_D.LIB OIS_D.LIB OGREOVERLAY_D.LIB KERNEL32.LIB USER32.LIB GDI32.LIB WINSPOOL.LIB COMDLG32.LIB ADVAPI32.LIB SHELL32.LIB OLE32.LIB OLEAUT32.LIB UUID.LIB ODBC32.LIB ODBCCP32.LIB /MANIFEST /MANIFESTUAC:"level='asInvoker' uiAccess='false'" /manifest:embed /DEBUG:FASTLINK /PDB:"C:\USERS\MARELLA\DESKTOP\1 - SETUP BASICS\DEBUG\1 - SETUP BASICS.PDB" /TLBID:1 /DYNAMICBASE /NXCOMPAT /IMPLIB:"C:\USERS\MARELLA\DESKTOP\1 - SETUP BASICS\DEBUG\1 - SETUP BASICS.LIB" /MACHINE:X86 DEBUG\BASEAPPLICATION.OBJDEBUG\TUTORIALAPPLICATION.OBJ
^C:\USERS\MARELLA\DESKTOP\OGRE - PARAYRAY (1 - SETUP BASICS)\1 - SETUP BASICS\DEBUG\BASEAPPLICATION.OBJ|C:\USERS\MARELLA\DESKTOP\OGRE - PARAYRAY (1 - SETUP BASICS)\1 - SETUP BASICS\DEBUG\PLANET.OBJ|C:\USERS\MARELLA\DESKTOP\OGRE - PARAYRAY (1 - SETUP BASICS)\1 - SETUP BASICS\DEBUG\TUTORIALAPPLICATION.OBJ
/OUT:"C:\USERS\MARELLA\DESKTOP\OGRE - PARAYRAY (1 - SETUP BASICS)\DEBUG\1 - SETUP BASICS.EXE" /INCREMENTAL /NOLOGO /LIBPATH:C:\OGRESDK_1_9\BOOST\LIB /LIBPATH:C:\OGRESDK_1_9\LIB\DEBUG OGREMAIN_D.LIB OIS_D.LIB OGREOVERLAY_D.LIB KERNEL32.LIB USER32.LIB GDI32.LIB WINSPOOL.LIB COMDLG32.LIB ADVAPI32.LIB SHELL32.LIB OLE32.LIB OLEAUT32.LIB UUID.LIB ODBC32.LIB ODBCCP32.LIB /MANIFEST /MANIFESTUAC:"level='asInvoker' uiAccess='false'" /manifest:embed /DEBUG:FASTLINK /PDB:"C:\USERS\MARELLA\DESKTOP\OGRE - PARAYRAY (1 - SETUP BASICS)\DEBUG\1 - SETUP BASICS.PDB" /TLBID:1 /DYNAMICBASE /NXCOMPAT /IMPLIB:"C:\USERS\MARELLA\DESKTOP\OGRE - PARAYRAY (1 - SETUP BASICS)\DEBUG\1 - SETUP BASICS.LIB" /MACHINE:X86 DEBUG\BASEAPPLICATION.OBJDEBUG\PLANET.OBJDEBUG\TUTORIALAPPLICATION.OBJ
^C:\USERS\MARELLA\DESKTOP\MIDTERMS OGRE - PARAYRAY (1 - SETUP BASICS) - COPY - COPY\1 - SETUP BASICS\DEBUG\BASEAPPLICATION.OBJ|C:\USERS\MARELLA\DESKTOP\MIDTERMS OGRE - PARAYRAY (1 - SETUP BASICS) - COPY - COPY\1 - SETUP BASICS\DEBUG\PLANET.OBJ|C:\USERS\MARELLA\DESKTOP\MIDTERMS OGRE - PARAYRAY (1 - SETUP BASICS) - COPY - COPY\1 - SETUP BASICS\DEBUG\TUTORIALAPPLICATION.OBJ
/OUT:"C:\USERS\MARELLA\DESKTOP\MIDTERMS OGRE - PARAYRAY (1 - SETUP BASICS) - COPY - COPY\DEBUG\1 - SETUP BASICS.EXE" /INCREMENTAL /NOLOGO /LIBPATH:C:\OGRESDK_1_9\BOOST\LIB /LIBPATH:C:\OGRESDK_1_9\LIB\DEBUG OGREMAIN_D.LIB OIS_D.LIB OGREOVERLAY_D.LIB KERNEL32.LIB USER32.LIB GDI32.LIB WINSPOOL.LIB COMDLG32.LIB ADVAPI32.LIB SHELL32.LIB OLE32.LIB OLEAUT32.LIB UUID.LIB ODBC32.LIB ODBCCP32.LIB /MANIFEST /MANIFESTUAC:"level='asInvoker' uiAccess='false'" /manifest:embed /DEBUG:FASTLINK /PDB:"C:\USERS\MARELLA\DESKTOP\MIDTERMS OGRE - PARAYRAY (1 - SETUP BASICS) - COPY - COPY\DEBUG\1 - SETUP BASICS.PDB" /TLBID:1 /DYNAMICBASE /NXCOMPAT /IMPLIB:"C:\USERS\MARELLA\DESKTOP\MIDTERMS OGRE - PARAYRAY (1 - SETUP BASICS) - COPY - COPY\DEBUG\1 - SETUP BASICS.LIB" /MACHINE:X86 DEBUG\BASEAPPLICATION.OBJDEBUG\PLANET.OBJDEBUG\TUTORIALAPPLICATION.OBJ
^C:\USERS\MARELLA\DESKTOP\OGRE - PARAYRAY (1 - SETUP BASICS) - COPY - COPY\1 - SETUP BASICS\DEBUG\BASEAPPLICATION.OBJ|C:\USERS\MARELLA\DESKTOP\OGRE - PARAYRAY (1 - SETUP BASICS) - COPY - COPY\1 - SETUP BASICS\DEBUG\PLANET.OBJ|C:\USERS\MARELLA\DESKTOP\OGRE - PARAYRAY (1 - SETUP BASICS) - COPY - COPY\1 - SETUP BASICS\DEBUG\TUTORIALAPPLICATION.OBJ
/OUT:"C:\USERS\MARELLA\DESKTOP\OGRE - PARAYRAY (1 - SETUP BASICS) - COPY - COPY\DEBUG\1 - SETUP BASICS.EXE" /INCREMENTAL /NOLOGO /LIBPATH:C:\OGRESDK_1_9\BOOST\LIB /LIBPATH:C:\OGRESDK_1_9\LIB\DEBUG OGREMAIN_D.LIB OIS_D.LIB OGREOVERLAY_D.LIB KERNEL32.LIB USER32.LIB GDI32.LIB WINSPOOL.LIB COMDLG32.LIB ADVAPI32.LIB SHELL32.LIB OLE32.LIB OLEAUT32.LIB UUID.LIB ODBC32.LIB ODBCCP32.LIB /MANIFEST /MANIFESTUAC:"level='asInvoker' uiAccess='false'" /manifest:embed /DEBUG:FASTLINK /PDB:"C:\USERS\MARELLA\DESKTOP\OGRE - PARAYRAY (1 - SETUP BASICS) - COPY - COPY\DEBUG\1 - SETUP BASICS.PDB" /TLBID:1 /DYNAMICBASE /NXCOMPAT /IMPLIB:"C:\USERS\MARELLA\DESKTOP\OGRE - PARAYRAY (1 - SETUP BASICS) - COPY - COPY\DEBUG\1 - SETUP BASICS.LIB" /MACHINE:X86 DEBUG\BASEAPPLICATION.OBJDEBUG\PLANET.OBJDEBUG\TUTORIALAPPLICATION.OBJ
