^C:\USERS\MARELLA\DESKTOP\OGRE - PARAYRAY (1 - SETUP BASICS)\1 - SETUP BASICS\BASEAPPLICATION.CPP|C:\USERS\MARELLA\DESKTOP\OGRE - PARAYRAY (1 - SETUP BASICS)\1 - SETUP BASICS\TUTORIALAPPLICATION.CPP
C:\USERS\MARELLA\DESKTOP\OGRE - PARAYRAY (1 - SETUP BASICS)\1 - SETUP BASICS\DEBUG\VC141.PDB
C:\USERS\MARELLA\DESKTOP\OGRE - PARAYRAY (1 - SETUP BASICS)\1 - SETUP BASICS\DEBUG\VC141.IDB
C:\USERS\MARELLA\DESKTOP\OGRE - PARAYRAY (1 - SETUP BASICS)\1 - SETUP BASICS\DEBUG\BASEAPPLICATION.OBJ
^C:\USERS\MARELLA\DESKTOP\OGRE - PARAYRAY (1 - SETUP BASICS)\1 - SETUP BASICS\BASEAPPLICATION.CPP
C:\USERS\MARELLA\DESKTOP\OGRE - PARAYRAY (1 - SETUP BASICS)\1 - SETUP BASICS\DEBUG\BASEAPPLICATION.OBJ
^C:\USERS\MARELLA\DESKTOP\OGRE - PARAYRAY (1 - SETUP BASICS)\1 - SETUP BASICS\TUTORIALAPPLICATION.CPP
C:\USERS\MARELLA\DESKTOP\OGRE - PARAYRAY (1 - SETUP BASICS)\1 - SETUP BASICS\DEBUG\VC141.PDB
C:\USERS\MARELLA\DESKTOP\OGRE - PARAYRAY (1 - SETUP BASICS)\1 - SETUP BASICS\DEBUG\VC141.IDB
C:\USERS\MARELLA\DESKTOP\OGRE - PARAYRAY (1 - SETUP BASICS)\1 - SETUP BASICS\DEBUG\TUTORIALAPPLICATION.OBJ
