^C:\USERS\MARELLA\SOURCE\REPOS\BASPRG2 [FINALS] X3\BASPRG2 [FINALS] X3\PLAYER.CPP|C:\USERS\MARELLA\SOURCE\REPOS\BASPRG2 [FINALS] X3\BASPRG2 [FINALS] X3\POKEMON.CPP|C:\USERS\MARELLA\SOURCE\REPOS\BASPRG2 [FINALS] X3\BASPRG2 [FINALS] X3\SOURCE.CPP
C:\USERS\MARELLA\SOURCE\REPOS\BASPRG2 [FINALS] X3\BASPRG2 [FINALS] X3\DEBUG\VC141.PDB
C:\USERS\MARELLA\SOURCE\REPOS\BASPRG2 [FINALS] X3\BASPRG2 [FINALS] X3\DEBUG\VC141.IDB
C:\USERS\MARELLA\SOURCE\REPOS\BASPRG2 [FINALS] X3\BASPRG2 [FINALS] X3\DEBUG\POKEMON.OBJ
C:\USERS\MARELLA\SOURCE\REPOS\BASPRG2 [FINALS] X3\BASPRG2 [FINALS] X3\DEBUG\PLAYER.OBJ
^C:\USERS\MARELLA\SOURCE\REPOS\BASPRG2 [FINALS] X3\BASPRG2 [FINALS] X3\POKEMON.CPP|C:\USERS\MARELLA\SOURCE\REPOS\BASPRG2 [FINALS] X3\BASPRG2 [FINALS] X3\SOURCE.CPP
C:\USERS\MARELLA\SOURCE\REPOS\BASPRG2 [FINALS] X3\BASPRG2 [FINALS] X3\DEBUG\VC141.PDB
C:\USERS\MARELLA\SOURCE\REPOS\BASPRG2 [FINALS] X3\BASPRG2 [FINALS] X3\DEBUG\VC141.IDB
C:\USERS\MARELLA\SOURCE\REPOS\BASPRG2 [FINALS] X3\BASPRG2 [FINALS] X3\DEBUG\SOURCE.OBJ
C:\USERS\MARELLA\SOURCE\REPOS\BASPRG2 [FINALS] X3\BASPRG2 [FINALS] X3\DEBUG\POKEMON.OBJ
^C:\USERS\MARELLA\SOURCE\REPOS\BASPRG2 [FINALS] X3\BASPRG2 [FINALS] X3\PLAYER.CPP|C:\USERS\MARELLA\SOURCE\REPOS\BASPRG2 [FINALS] X3\BASPRG2 [FINALS] X3\POKEMON.CPP|C:\USERS\MARELLA\SOURCE\REPOS\BASPRG2 [FINALS] X3\BASPRG2 [FINALS] X3\POKEPARTY.CPP|C:\USERS\MARELLA\SOURCE\REPOS\BASPRG2 [FINALS] X3\BASPRG2 [FINALS] X3\SOURCE.CPP
C:\USERS\MARELLA\SOURCE\REPOS\BASPRG2 [FINALS] X3\BASPRG2 [FINALS] X3\DEBUG\VC141.PDB
C:\USERS\MARELLA\SOURCE\REPOS\BASPRG2 [FINALS] X3\BASPRG2 [FINALS] X3\DEBUG\VC141.IDB
C:\USERS\MARELLA\SOURCE\REPOS\BASPRG2 [FINALS] X3\BASPRG2 [FINALS] X3\DEBUG\SOURCE.OBJ
C:\USERS\MARELLA\SOURCE\REPOS\BASPRG2 [FINALS] X3\BASPRG2 [FINALS] X3\DEBUG\POKEMON.OBJ
C:\USERS\MARELLA\SOURCE\REPOS\BASPRG2 [FINALS] X3\BASPRG2 [FINALS] X3\DEBUG\POKEPARTY.OBJ
C:\USERS\MARELLA\SOURCE\REPOS\BASPRG2 [FINALS] X3\BASPRG2 [FINALS] X3\DEBUG\PLAYER.OBJ
^C:\USERS\MARELLA\SOURCE\REPOS\BASPRG2 [FINALS] X3\BASPRG2 [FINALS] X3\POKEMON.CPP|C:\USERS\MARELLA\SOURCE\REPOS\BASPRG2 [FINALS] X3\BASPRG2 [FINALS] X3\POKEPARTY.CPP
C:\USERS\MARELLA\SOURCE\REPOS\BASPRG2 [FINALS] X3\BASPRG2 [FINALS] X3\DEBUG\VC141.PDB
C:\USERS\MARELLA\SOURCE\REPOS\BASPRG2 [FINALS] X3\BASPRG2 [FINALS] X3\DEBUG\VC141.IDB
C:\USERS\MARELLA\SOURCE\REPOS\BASPRG2 [FINALS] X3\BASPRG2 [FINALS] X3\DEBUG\POKEMON.OBJ
C:\USERS\MARELLA\SOURCE\REPOS\BASPRG2 [FINALS] X3\BASPRG2 [FINALS] X3\DEBUG\POKEPARTY.OBJ
^C:\USERS\MARELLA\SOURCE\REPOS\BASPRG2 [FINALS] X3\BASPRG2 [FINALS] X3\POKEPARTY.CPP
C:\USERS\MARELLA\SOURCE\REPOS\BASPRG2 [FINALS] X3\BASPRG2 [FINALS] X3\DEBUG\VC141.PDB
^C:\USERS\MARELLA\SOURCE\REPOS\BASPRG2 [FINALS] X3\BASPRG2 [FINALS] X3\PLAYER.CPP|C:\USERS\MARELLA\SOURCE\REPOS\BASPRG2 [FINALS] X3\BASPRG2 [FINALS] X3\SOURCE.CPP
C:\USERS\MARELLA\SOURCE\REPOS\BASPRG2 [FINALS] X3\BASPRG2 [FINALS] X3\DEBUG\VC141.PDB
C:\USERS\MARELLA\SOURCE\REPOS\BASPRG2 [FINALS] X3\BASPRG2 [FINALS] X3\DEBUG\VC141.IDB
C:\USERS\MARELLA\SOURCE\REPOS\BASPRG2 [FINALS] X3\BASPRG2 [FINALS] X3\DEBUG\SOURCE.OBJ
C:\USERS\MARELLA\SOURCE\REPOS\BASPRG2 [FINALS] X3\BASPRG2 [FINALS] X3\DEBUG\PLAYER.OBJ
^C:\USERS\MARELLA\SOURCE\REPOS\BASPRG2 [FINALS] X3\BASPRG2 [FINALS] X3\SOURCE.CPP
C:\USERS\MARELLA\SOURCE\REPOS\BASPRG2 [FINALS] X3\BASPRG2 [FINALS] X3\DEBUG\VC141.PDB
^C:\USERS\MARELLA\SOURCE\REPOS\BASPRG2 [FINALS] X3\BASPRG2 [FINALS] X3\PLAYER.CPP|C:\USERS\MARELLA\SOURCE\REPOS\BASPRG2 [FINALS] X3\BASPRG2 [FINALS] X3\POKEMON.CPP
C:\USERS\MARELLA\SOURCE\REPOS\BASPRG2 [FINALS] X3\BASPRG2 [FINALS] X3\DEBUG\VC141.PDB
C:\USERS\MARELLA\SOURCE\REPOS\BASPRG2 [FINALS] X3\BASPRG2 [FINALS] X3\DEBUG\VC141.IDB
C:\USERS\MARELLA\SOURCE\REPOS\BASPRG2 [FINALS] X3\BASPRG2 [FINALS] X3\DEBUG\POKEMON.OBJ
C:\USERS\MARELLA\SOURCE\REPOS\BASPRG2 [FINALS] X3\BASPRG2 [FINALS] X3\DEBUG\PLAYER.OBJ
^C:\USERS\MARELLA\SOURCE\REPOS\BASPRG2 [FINALS] X3\BASPRG2 [FINALS] X3\POKEMON.CPP
C:\USERS\MARELLA\SOURCE\REPOS\BASPRG2 [FINALS] X3\BASPRG2 [FINALS] X3\DEBUG\VC141.PDB
C:\USERS\MARELLA\SOURCE\REPOS\BASPRG2 [FINALS] X3\BASPRG2 [FINALS] X3\DEBUG\VC141.IDB
C:\USERS\MARELLA\SOURCE\REPOS\BASPRG2 [FINALS] X3\BASPRG2 [FINALS] X3\DEBUG\POKEMON.OBJ
^C:\USERS\MARELLA\SOURCE\REPOS\BASPRG2 [FINALS] X3\BASPRG2 [FINALS] X3\PLAYER.CPP
C:\USERS\MARELLA\SOURCE\REPOS\BASPRG2 [FINALS] X3\BASPRG2 [FINALS] X3\DEBUG\VC141.PDB
C:\USERS\MARELLA\SOURCE\REPOS\BASPRG2 [FINALS] X3\BASPRG2 [FINALS] X3\DEBUG\VC141.IDB
C:\USERS\MARELLA\SOURCE\REPOS\BASPRG2 [FINALS] X3\BASPRG2 [FINALS] X3\DEBUG\PLAYER.OBJ
^C:\USERS\MARELLA\DOCUMENTS\SY19T1-BASPRG3-TG002A-PARAYRAY-MARELLA-BASPRG2-FINALS\BASPRG2 [FINALS] X3\BASPRG2 [FINALS] X3\PLAYER.CPP|C:\USERS\MARELLA\DOCUMENTS\SY19T1-BASPRG3-TG002A-PARAYRAY-MARELLA-BASPRG2-FINALS\BASPRG2 [FINALS] X3\BASPRG2 [FINALS] X3\POKEMON.CPP|C:\USERS\MARELLA\DOCUMENTS\SY19T1-BASPRG3-TG002A-PARAYRAY-MARELLA-BASPRG2-FINALS\BASPRG2 [FINALS] X3\BASPRG2 [FINALS] X3\POKEPARTY.CPP|C:\USERS\MARELLA\DOCUMENTS\SY19T1-BASPRG3-TG002A-PARAYRAY-MARELLA-BASPRG2-FINALS\BASPRG2 [FINALS] X3\BASPRG2 [FINALS] X3\SOURCE.CPP
C:\USERS\MARELLA\DOCUMENTS\SY19T1-BASPRG3-TG002A-PARAYRAY-MARELLA-BASPRG2-FINALS\BASPRG2 [FINALS] X3\BASPRG2 [FINALS] X3\DEBUG\VC141.PDB
C:\USERS\MARELLA\DOCUMENTS\SY19T1-BASPRG3-TG002A-PARAYRAY-MARELLA-BASPRG2-FINALS\BASPRG2 [FINALS] X3\BASPRG2 [FINALS] X3\DEBUG\VC141.IDB
C:\USERS\MARELLA\DOCUMENTS\SY19T1-BASPRG3-TG002A-PARAYRAY-MARELLA-BASPRG2-FINALS\BASPRG2 [FINALS] X3\BASPRG2 [FINALS] X3\DEBUG\SOURCE.OBJ
C:\USERS\MARELLA\DOCUMENTS\SY19T1-BASPRG3-TG002A-PARAYRAY-MARELLA-BASPRG2-FINALS\BASPRG2 [FINALS] X3\BASPRG2 [FINALS] X3\DEBUG\POKEPARTY.OBJ
C:\USERS\MARELLA\DOCUMENTS\SY19T1-BASPRG3-TG002A-PARAYRAY-MARELLA-BASPRG2-FINALS\BASPRG2 [FINALS] X3\BASPRG2 [FINALS] X3\DEBUG\POKEMON.OBJ
C:\USERS\MARELLA\DOCUMENTS\SY19T1-BASPRG3-TG002A-PARAYRAY-MARELLA-BASPRG2-FINALS\BASPRG2 [FINALS] X3\BASPRG2 [FINALS] X3\DEBUG\PLAYER.OBJ
^C:\USERS\MARELLA\DOCUMENTS\SY19T1-BASPRG3-TG002A-PARAYRAY-MARELLA-BASPRG2-FINALS\BASPRG2 [FINALS] X3\BASPRG2 [FINALS] X3\PLAYER.CPP
C:\USERS\MARELLA\DOCUMENTS\SY19T1-BASPRG3-TG002A-PARAYRAY-MARELLA-BASPRG2-FINALS\BASPRG2 [FINALS] X3\BASPRG2 [FINALS] X3\DEBUG\VC141.PDB
^C:\USERS\MARELLA\DOCUMENTS\SY19T1-BASPRG3-TG002A-PARAYRAY-MARELLA-BASPRG2-FINALS\BASPRG2 [FINALS] X3\BASPRG2 [FINALS] X3\POKEMON.CPP
C:\USERS\MARELLA\DOCUMENTS\SY19T1-BASPRG3-TG002A-PARAYRAY-MARELLA-BASPRG2-FINALS\BASPRG2 [FINALS] X3\BASPRG2 [FINALS] X3\DEBUG\VC141.PDB
^C:\USERS\MARELLA\DOCUMENTS\SY19T1-BASPRG3-TG002A-PARAYRAY-MARELLA-BASPRG2-FINALS\BASPRG2 [FINALS] X3\BASPRG2 [FINALS] X3\POKEPARTY.CPP
C:\USERS\MARELLA\DOCUMENTS\SY19T1-BASPRG3-TG002A-PARAYRAY-MARELLA-BASPRG2-FINALS\BASPRG2 [FINALS] X3\BASPRG2 [FINALS] X3\DEBUG\VC141.PDB
^C:\USERS\MARELLA\DOCUMENTS\SY19T1-BASPRG3-TG002A-PARAYRAY-MARELLA-BASPRG2-FINALS\BASPRG2 [FINALS] X3\BASPRG2 [FINALS] X3\SOURCE.CPP
C:\USERS\MARELLA\DOCUMENTS\SY19T1-BASPRG3-TG002A-PARAYRAY-MARELLA-BASPRG2-FINALS\BASPRG2 [FINALS] X3\BASPRG2 [FINALS] X3\DEBUG\VC141.PDB
