^C:\USERS\VALMONTEK\DOWNLOADS\OGRE3D CONTENT\1 - SETUP BASICS\1 - SETUP BASICS\BASEAPPLICATION.CPP
/c /ZI /nologo /W3 /WX- /diagnostics:classic /sdl /Od /D _MBCS /Gm /EHsc /RTC1 /MDd /GS /fp:precise /Zc:wchar_t /Zc:forScope /Zc:inline /Fo"X64\DEBUG\\" /Fd"X64\DEBUG\VC141.PDB" /Gd /TP C:\USERS\VALMONTEK\DOWNLOADS\OGRE3D CONTENT\1 - SETUP BASICS\1 - SETUP BASICS\BASEAPPLICATION.CPP
^C:\USERS\VALMONTEK\DOWNLOADS\OGRE3D CONTENT\1 - SETUP BASICS\1 - SETUP BASICS\TUTORIALAPPLICATION.CPP
/c /ZI /nologo /W3 /WX- /diagnostics:classic /sdl /Od /D _MBCS /Gm /EHsc /RTC1 /MDd /GS /fp:precise /Zc:wchar_t /Zc:forScope /Zc:inline /Fo"X64\DEBUG\\" /Fd"X64\DEBUG\VC141.PDB" /Gd /TP C:\USERS\VALMONTEK\DOWNLOADS\OGRE3D CONTENT\1 - SETUP BASICS\1 - SETUP BASICS\TUTORIALAPPLICATION.CPP
